STO\_main package
=================

Subpackages
-----------

.. toctree::
   :maxdepth: 4

   STO_main.migrations
   STO_main.templatetags
   STO_main.tests

Submodules
----------

STO\_main.admin module
----------------------

.. automodule:: STO_main.admin
   :members:
   :undoc-members:
   :show-inheritance:

STO\_main.apps module
---------------------

.. automodule:: STO_main.apps
   :members:
   :undoc-members:
   :show-inheritance:

STO\_main.forms module
----------------------

.. automodule:: STO_main.forms
   :members:
   :undoc-members:
   :show-inheritance:

STO\_main.mixins module
-----------------------

.. automodule:: STO_main.mixins
   :members:
   :undoc-members:
   :show-inheritance:

STO\_main.models module
-----------------------

.. automodule:: STO_main.models
   :members:
   :undoc-members:
   :show-inheritance:

STO\_main.sitemap module
------------------------

.. automodule:: STO_main.sitemap
   :members:
   :undoc-members:
   :show-inheritance:

STO\_main.views module
----------------------

.. automodule:: STO_main.views
   :members:
   :undoc-members:
   :show-inheritance:

Module contents
---------------

.. automodule:: STO_main
   :members:
   :undoc-members:
   :show-inheritance:
